13 Reshaping – COMP/STAT112 Notebook
…
13.6.0.2 Part b

Use your wrangling tools to identify which songs are those above the line in Part a, i.e. with rankgings that went up from week 1 to week 2.

Code
songs_improved <- billboard_weeks |>
  filter(week_2 < week_1) |>
  select(artist, track, week_1, week_2) |>
  arrange(week_2)  

print(songs_improved)

# A tibble: 255 × 4
   artist                           track             week_1 week_2
   <chr>                            <chr>              <dbl>  <dbl>
 1 "Santana"                        Maria, Maria          15      8
 2 "Pink"                           There U Go            25     15
 3 "N'Sync"                         Bye Bye Bye           42     20
 4 "Elliott, Missy \"Misdemeanor\"" Hot Boyz              36     21
 5 "Madonna"                        Music                 41     23
 6 "Backstreet Boys, The"           Shape Of My Heart     39     25
 7 "Martin, Ricky"                  She Bangs             38     28
 8 "Dixie Chicks, The"              Goodbye Earl          40     29
 9 "Eiffel 65"                      Blue                  67     29
10 "Guy"                            Dancin'               46     29
# ℹ 245 more rows
…
